.....................
----------------------------------------------------------------------
Ran 21 tests in 0.448s

OK
Name             Stmts   Miss Branch BrPart  Cover   Missing
------------------------------------------------------------
Collatz.py          10      0      2      0   100%
TestCollatz.py      89      0      0      0   100%
------------------------------------------------------------
TOTAL               99      0      2      0   100%
